{
  "artists": {
    "href": "https://api.spotify.com/v1/search?query=genre%3ARock&type=artist&offset=0&limit=10",
    "items": [
      {
        "external_urls": {
          "spotify": "https://open.spotify.com/artist/53XhwfbYqKCa1cC15pYq2q"
        },
        "followers": {
          "href": null,
          "total": 47992713
        },
        "genres": [
          "modern rock",
          "pop",
          "rock"
        ],
        "href": "https://api.spotify.com/v1/artists/53XhwfbYqKCa1cC15pYq2q",
        "id": "53XhwfbYqKCa1cC15pYq2q",
        "images": [
          {
            "height": 640,
            "url": "https://i.scdn.co/image/ab6761610000e5eb920dc1f617550de8388f368e",
            "width": 640
          },
          {
            "height": 320,
            "url": "https://i.scdn.co/image/ab67616100005174920dc1f617550de8388f368e",
            "width": 320
          },
          {
            "height": 160,
            "url": "https://i.scdn.co/image/ab6761610000f178920dc1f617550de8388f368e",
            "width": 160
          }
        ],
        "name": "Imagine Dragons",
        "popularity": 87,
        "type": "artist",
        "uri": "spotify:artist:53XhwfbYqKCa1cC15pYq2q"
      },
      {
        "external_urls": {
          "spotify": "https://open.spotify.com/artist/3WrFJ7ztbogyGnTHbHJFl2"
        },
        "followers": {
          "href": null,
          "total": 25416098
        },
        "genres": [
          "beatlesque",
          "british invasion",
          "classic rock",
          "merseybeat",
          "psychedelic rock",
          "rock"
        ],
        "href": "https://api.spotify.com/v1/artists/3WrFJ7ztbogyGnTHbHJFl2",
        "id": "3WrFJ7ztbogyGnTHbHJFl2",
        "images": [
          {
            "height": 640,
            "url": "https://i.scdn.co/image/ab6761610000e5ebe9348cc01ff5d55971b22433",
            "width": 640
          },
          {
            "height": 320,
            "url": "https://i.scdn.co/image/ab67616100005174e9348cc01ff5d55971b22433",
            "width": 320
          },
          {
            "height": 160,
            "url": "https://i.scdn.co/image/ab6761610000f178e9348cc01ff5d55971b22433",
            "width": 160
          }
        ],
        "name": "The Beatles",
        "popularity": 84,
        "type": "artist",
        "uri": "spotify:artist:3WrFJ7ztbogyGnTHbHJFl2"
      },
      {
        "external_urls": {
          "spotify": "https://open.spotify.com/artist/08GQAI4eElDnROBrJRGE0X"
        },
        "followers": {
          "href": null,
          "total": 9906993
        },
        "genres": [
          "album rock",
          "classic rock",
          "rock",
          "soft rock",
          "yacht rock"
        ],
        "href": "https://api.spotify.com/v1/artists/08GQAI4eElDnROBrJRGE0X",
        "id": "08GQAI4eElDnROBrJRGE0X",
        "images": [
          {
            "height": 640,
            "url": "https://i.scdn.co/image/ab6761610000e5eb249d55f2d68a44637905c57e",
            "width": 640
          },
          {
            "height": 320,
            "url": "https://i.scdn.co/image/ab67616100005174249d55f2d68a44637905c57e",
            "width": 320
          },
          {
            "height": 160,
            "url": "https://i.scdn.co/image/ab6761610000f178249d55f2d68a44637905c57e",
            "width": 160
          }
        ],
        "name": "Fleetwood Mac",
        "popularity": 81,
        "type": "artist",
        "uri": "spotify:artist:08GQAI4eElDnROBrJRGE0X"
      },
      {
        "external_urls": {
          "spotify": "https://open.spotify.com/artist/7Ln80lUS6He07XvHI8qqHH"
        },
        "followers": {
          "href": null,
          "total": 20033603
        },
        "genres": [
          "garage rock",
          "modern rock",
          "permanent wave",
          "rock",
          "sheffield indie"
        ],
        "href": "https://api.spotify.com/v1/artists/7Ln80lUS6He07XvHI8qqHH",
        "id": "7Ln80lUS6He07XvHI8qqHH",
        "images": [
          {
            "height": 640,
            "url": "https://i.scdn.co/image/ab6761610000e5eb7da39dea0a72f581535fb11f",
            "width": 640
          },
          {
            "height": 320,
            "url": "https://i.scdn.co/image/ab676161000051747da39dea0a72f581535fb11f",
            "width": 320
          },
          {
            "height": 160,
            "url": "https://i.scdn.co/image/ab6761610000f1787da39dea0a72f581535fb11f",
            "width": 160
          }
        ],
        "name": "Arctic Monkeys",
        "popularity": 86,
        "type": "artist",
        "uri": "spotify:artist:7Ln80lUS6He07XvHI8qqHH"
      },
      {
        "external_urls": {
          "spotify": "https://open.spotify.com/artist/77SW9BnxLY8rJ0RciFqkHh"
        },
        "followers": {
          "href": null,
          "total": 12545109
        },
        "genres": [
          "modern alternative rock",
          "modern rock",
          "pop",
          "pov: indie"
        ],
        "href": "https://api.spotify.com/v1/artists/77SW9BnxLY8rJ0RciFqkHh",
        "id": "77SW9BnxLY8rJ0RciFqkHh",
        "images": [
          {
            "height": 640,
            "url": "https://i.scdn.co/image/ab6761610000e5ebdf0b5ac84376a0a4b2166816",
            "width": 640
          },
          {
            "height": 320,
            "url": "https://i.scdn.co/image/ab67616100005174df0b5ac84376a0a4b2166816",
            "width": 320
          },
          {
            "height": 160,
            "url": "https://i.scdn.co/image/ab6761610000f178df0b5ac84376a0a4b2166816",
            "width": 160
          }
        ],
        "name": "The Neighbourhood",
        "popularity": 83,
        "type": "artist",
        "uri": "spotify:artist:77SW9BnxLY8rJ0RciFqkHh"
      },
      {
        "external_urls": {
          "spotify": "https://open.spotify.com/artist/5INjqkS1o8h1imAzPqGZBb"
        },
        "followers": {
          "href": null,
          "total": 6554815
        },
        "genres": [
          "australian psych",
          "modern rock",
          "neo-psychedelic",
          "rock"
        ],
        "href": "https://api.spotify.com/v1/artists/5INjqkS1o8h1imAzPqGZBb",
        "id": "5INjqkS1o8h1imAzPqGZBb",
        "images": [
          {
            "height": 640,
            "url": "https://i.scdn.co/image/ab6761610000e5eb90357ef28b3a012a1d1b2fa2",
            "width": 640
          },
          {
            "height": 320,
            "url": "https://i.scdn.co/image/ab6761610000517490357ef28b3a012a1d1b2fa2",
            "width": 320
          },
          {
            "height": 160,
            "url": "https://i.scdn.co/image/ab6761610000f17890357ef28b3a012a1d1b2fa2",
            "width": 160
          }
        ],
        "name": "Tame Impala",
        "popularity": 80,
        "type": "artist",
        "uri": "spotify:artist:5INjqkS1o8h1imAzPqGZBb"
      },
      {
        "external_urls": {
          "spotify": "https://open.spotify.com/artist/1dfeR4HaWDbWqFHLkxsg1d"
        },
        "followers": {
          "href": null,
          "total": 46807842
        },
        "genres": [
          "classic rock",
          "glam rock",
          "rock"
        ],
        "href": "https://api.spotify.com/v1/artists/1dfeR4HaWDbWqFHLkxsg1d",
        "id": "1dfeR4HaWDbWqFHLkxsg1d",
        "images": [
          {
            "height": 806,
            "url": "https://i.scdn.co/image/b040846ceba13c3e9c125d68389491094e7f2982",
            "width": 999
          },
          {
            "height": 516,
            "url": "https://i.scdn.co/image/af2b8e57f6d7b5d43a616bd1e27ba552cd8bfd42",
            "width": 640
          },
          {
            "height": 161,
            "url": "https://i.scdn.co/image/c06971e9ff81696699b829484e3be165f4e64368",
            "width": 200
          },
          {
            "height": 52,
            "url": "https://i.scdn.co/image/6dd0ffd270903d1884edf9058c49f58b03db893d",
            "width": 64
          }
        ],
        "name": "Queen",
        "popularity": 84,
        "type": "artist",
        "uri": "spotify:artist:1dfeR4HaWDbWqFHLkxsg1d"
      },
      {
        "external_urls": {
          "spotify": "https://open.spotify.com/artist/3PhoLpVuITZKcymswpck5b"
        },
        "followers": {
          "href": null,
          "total": 11613442
        },
        "genres": [
          "glam rock",
          "mellow gold",
          "piano rock",
          "rock"
        ],
        "href": "https://api.spotify.com/v1/artists/3PhoLpVuITZKcymswpck5b",
        "id": "3PhoLpVuITZKcymswpck5b",
        "images": [
          {
            "height": 640,
            "url": "https://i.scdn.co/image/ab6761610000e5eb0a7388b95df960b5c0da8970",
            "width": 640
          },
          {
            "height": 320,
            "url": "https://i.scdn.co/image/ab676161000051740a7388b95df960b5c0da8970",
            "width": 320
          },
          {
            "height": 160,
            "url": "https://i.scdn.co/image/ab6761610000f1780a7388b95df960b5c0da8970",
            "width": 160
          }
        ],
        "name": "Elton John",
        "popularity": 83,
        "type": "artist",
        "uri": "spotify:artist:3PhoLpVuITZKcymswpck5b"
      },
      {
        "external_urls": {
          "spotify": "https://open.spotify.com/artist/0L8ExT028jH3ddEcZwqJJ5"
        },
        "followers": {
          "href": null,
          "total": 19687583
        },
        "genres": [
          "alternative rock",
          "funk metal",
          "funk rock",
          "permanent wave",
          "rock"
        ],
        "href": "https://api.spotify.com/v1/artists/0L8ExT028jH3ddEcZwqJJ5",
        "id": "0L8ExT028jH3ddEcZwqJJ5",
        "images": [
          {
            "height": 640,
            "url": "https://i.scdn.co/image/ab6761610000e5ebc33cc15260b767ddec982ce8",
            "width": 640
          },
          {
            "height": 320,
            "url": "https://i.scdn.co/image/ab67616100005174c33cc15260b767ddec982ce8",
            "width": 320
          },
          {
            "height": 160,
            "url": "https://i.scdn.co/image/ab6761610000f178c33cc15260b767ddec982ce8",
            "width": 160
          }
        ],
        "name": "Red Hot Chili Peppers",
        "popularity": 82,
        "type": "artist",
        "uri": "spotify:artist:0L8ExT028jH3ddEcZwqJJ5"
      },
      {
        "external_urls": {
          "spotify": "https://open.spotify.com/artist/4UXqAaa6dQYAk18Lv7PEgX"
        },
        "followers": {
          "href": null,
          "total": 10035394
        },
        "genres": [
          "emo",
          "modern rock",
          "pop",
          "pop punk",
          "rock"
        ],
        "href": "https://api.spotify.com/v1/artists/4UXqAaa6dQYAk18Lv7PEgX",
        "id": "4UXqAaa6dQYAk18Lv7PEgX",
        "images": [
          {
            "height": 640,
            "url": "https://i.scdn.co/image/ab6761610000e5eb362011ebe6064c38e97e9aac",
            "width": 640
          },
          {
            "height": 320,
            "url": "https://i.scdn.co/image/ab67616100005174362011ebe6064c38e97e9aac",
            "width": 320
          },
          {
            "height": 160,
            "url": "https://i.scdn.co/image/ab6761610000f178362011ebe6064c38e97e9aac",
            "width": 160
          }
        ],
        "name": "Fall Out Boy",
        "popularity": 79,
        "type": "artist",
        "uri": "spotify:artist:4UXqAaa6dQYAk18Lv7PEgX"
      }
    ],
    "limit": 10,
    "next": "https://api.spotify.com/v1/search?query=genre%3ARock&type=artist&offset=10&limit=10",
    "offset": 0,
    "previous": null,
    "total": 1000
  }
}